{
    "laValues": [
        {
            "PlanName": "UnitedHealthcare Platinum Compass 250",
            "OOP1Non": "",
            "OOP1NonLink": "",
            "OOP2Non": "",
            "OOP2NonLink": "",
            "OOP3Non": "",
            "OOP3NonLink": "",
            "OOP4Non": "",
            "OOP4NonLink": "",
            "OOP5Non": "",
            "OOP5NonLink": "",
            "OOP6Non": "",
            "OOP6NonLink": "",
            "OOP7Non": "",
            "OOP7NonLink": "",
            "OOP8Non": "",
            "OOP8NonLink": "",
            "OOP1Native": "$1,500",
            "OOP1NativeLink": "platinum-250-1.html",
            "OOP2Native": "$3,000",
            "OOP2NativeLink": "platinum-250-1.html",
            "OOP3Native": "N/A",
            "OOP3NativeLink": "platinum-0.html"
        },
        {
            "PlanName": "UnitedHealthcare Platinum Compass $0",
            "OOP1Non": "",
            "OOP1NonLink": "",
            "OOP2Non": "",
            "OOP2NonLink": "",
            "OOP3Non": "",
            "OOP3NonLink": "",
            "OOP4Non": "",
            "OOP4NonLink": "",
            "OOP5Non": "",
            "OOP5NonLink": "",
            "OOP6Non": "",
            "OOP6NonLink": "",
            "OOP7Non": "",
            "OOP7NonLink": "",
            "OOP8Non": "",
            "OOP8NonLink": "",
            "OOP1Native": "",
            "OOP1NativeLink": "",
            "OOP2Native": "",
            "OOP2NativeLink": "",
            "OOP3Native": "",
            "OOP3NativeLink": ""
        },
        {
            "PlanName": "UnitedHealthcare Platinum Compass 250-1",
            "OOP1Non": "",
            "OOP1NonLink": "",
            "OOP2Non": "",
            "OOP2NonLink": "",
            "OOP3Non": "",
            "OOP3NonLink": "",
            "OOP4Non": "",
            "OOP4NonLink": "",
            "OOP5Non": "",
            "OOP5NonLink": "",
            "OOP6Non": "",
            "OOP6NonLink": "",
            "OOP7Non": "",
            "OOP7NonLink": "",
            "OOP8Non": "",
            "OOP8NonLink": "",
            "OOP1Native": "",
            "OOP1NativeLink": "",
            "OOP2Native": "",
            "OOP2NativeLink": "",
            "OOP3Native": "",
            "OOP3NativeLink": ""
        },
        {
            "PlanName": "UnitedHealthcare Gold Compass 1250",
            "OOP1Non": "",
            "OOP1NonLink": "",
            "OOP2Non": "",
            "OOP2NonLink": "",
            "OOP3Non": "",
            "OOP3NonLink": "",
            "OOP4Non": "",
            "OOP4NonLink": "",
            "OOP5Non": "",
            "OOP5NonLink": "",
            "OOP6Non": "",
            "OOP6NonLink": "",
            "OOP7Non": "",
            "OOP7NonLink": "",
            "OOP8Non": "",
            "OOP8NonLink": "",
            "OOP1Native": "$6,600",
            "OOP1NativeLink": "gold-1250-1.html",
            "OOP2Native": "$13,200",
            "OOP2NativeLink": "gold-1250-1.html",
            "OOP3Native": "N/A",
            "OOP3NativeLink": "gold-0.html"
        },
        {
            "PlanName": "UnitedHealthcare Gold Compass $0",
            "OOP1Non": "",
            "OOP1NonLink": "",
            "OOP2Non": "",
            "OOP2NonLink": "",
            "OOP3Non": "",
            "OOP3NonLink": "",
            "OOP4Non": "",
            "OOP4NonLink": "",
            "OOP5Non": "",
            "OOP5NonLink": "",
            "OOP6Non": "",
            "OOP6NonLink": "",
            "OOP7Non": "",
            "OOP7NonLink": "",
            "OOP8Non": "",
            "OOP8NonLink": "",
            "OOP1Native": "",
            "OOP1NativeLink": "",
            "OOP2Native": "",
            "OOP2NativeLink": "",
            "OOP3Native": "",
            "OOP3NativeLink": ""
        },
        {
            "PlanName": "UnitedHealthcare Gold Compass 1250-1",
            "OOP1Non": "",
            "OOP1NonLink": "",
            "OOP2Non": "",
            "OOP2NonLink": "",
            "OOP3Non": "",
            "OOP3NonLink": "",
            "OOP4Non": "",
            "OOP4NonLink": "",
            "OOP5Non": "",
            "OOP5NonLink": "",
            "OOP6Non": "",
            "OOP6NonLink": "",
            "OOP7Non": "",
            "OOP7NonLink": "",
            "OOP8Non": "",
            "OOP8NonLink": "",
            "OOP1Native": "",
            "OOP1NativeLink": "",
            "OOP2Native": "",
            "OOP2NativeLink": "",
            "OOP3Native": "",
            "OOP3NativeLink": ""
        },
        {
            "PlanName": "UnitedHealthcare Gold Compass 500",
            "OOP1Non": "",
            "OOP1NonLink": "",
            "OOP2Non": "",
            "OOP2NonLink": "",
            "OOP3Non": "",
            "OOP3NonLink": "",
            "OOP4Non": "",
            "OOP4NonLink": "",
            "OOP5Non": "",
            "OOP5NonLink": "",
            "OOP6Non": "",
            "OOP6NonLink": "",
            "OOP7Non": "",
            "OOP7NonLink": "",
            "OOP8Non": "",
            "OOP8NonLink": "",
            "OOP1Native": "$6,600",
            "OOP1NativeLink": "gold-500-1.html",
            "OOP2Native": "$13,200",
            "OOP2NativeLink": "gold-500-1.html",
            "OOP3Native": "N/A",
            "OOP3NativeLink": "gold-0-500.html"
        },
        {
            "PlanName": "UnitedHealthcare Gold Compass $0",
            "OOP1Non": "",
            "OOP1NonLink": "",
            "OOP2Non": "",
            "OOP2NonLink": "",
            "OOP3Non": "",
            "OOP3NonLink": "",
            "OOP4Non": "",
            "OOP4NonLink": "",
            "OOP5Non": "",
            "OOP5NonLink": "",
            "OOP6Non": "",
            "OOP6NonLink": "",
            "OOP7Non": "",
            "OOP7NonLink": "",
            "OOP8Non": "",
            "OOP8NonLink": "",
            "OOP1Native": "",
            "OOP1NativeLink": "",
            "OOP2Native": "",
            "OOP2NativeLink": "",
            "OOP3Native": "",
            "OOP3NativeLink": ""
        },
        {
            "PlanName": "UnitedHealthcare Gold Compass 500-1",
            "OOP1Non": "",
            "OOP1NonLink": "",
            "OOP2Non": "",
            "OOP2NonLink": "",
            "OOP3Non": "",
            "OOP3NonLink": "",
            "OOP4Non": "",
            "OOP4NonLink": "",
            "OOP5Non": "",
            "OOP5NonLink": "",
            "OOP6Non": "",
            "OOP6NonLink": "",
            "OOP7Non": "",
            "OOP7NonLink": "",
            "OOP8Non": "",
            "OOP8NonLink": "",
            "OOP1Native": "",
            "OOP1NativeLink": "",
            "OOP2Native": "",
            "OOP2NativeLink": "",
            "OOP3Native": "",
            "OOP3NativeLink": ""
        },
        {
            "PlanName": "UnitedHealthcare Silver Compass HSA 2600",
            "OOP1Non": "$1,000",
            "OOP1NonLink": "silver-HSA-75.html",
            "OOP2Non": "$2,000",
            "OOP2NonLink": "silver-HSA-75.html",
            "OOP3Non": "$2,250",
            "OOP3NonLink": "silver-HSA-550.html",
            "OOP4Non": "$4,500",
            "OOP4NonLink": "silver-HSA-550.html",
            "OOP5Non": "$5,200",
            "OOP5NonLink": "silver-HSA-1900.html",
            "OOP6Non": "$10,400",
            "OOP6NonLink": "silver-HSA-1900.html",
            "OOP7Non": "$6,450",
            "OOP7NonLink": "silver-HSA-2600.html",
            "OOP8Non": "$12,900",
            "OOP8NonLink": "silver-HSA-2600.html",
            "OOP1Native": "$6,450",
            "OOP1NativeLink": "silver-HSA-2600-1.html",
            "OOP2Native": "$12,900",
            "OOP2NativeLink": "silver-HSA-2600-1.html",
            "OOP3Native": "N/A",
            "OOP3NativeLink": "silver-HSA-0-2600.html"
        },
        {
            "PlanName": "UnitedHealthcare Silver Compass HSA $0",
            "OOP1Non": "",
            "OOP1NonLink": "",
            "OOP2Non": "",
            "OOP2NonLink": "",
            "OOP3Non": "",
            "OOP3NonLink": "",
            "OOP4Non": "",
            "OOP4NonLink": "",
            "OOP5Non": "",
            "OOP5NonLink": "",
            "OOP6Non": "",
            "OOP6NonLink": "",
            "OOP7Non": "",
            "OOP7NonLink": "",
            "OOP8Non": "",
            "OOP8NonLink": "",
            "OOP1Native": "",
            "OOP1NativeLink": "",
            "OOP2Native": "",
            "OOP2NativeLink": "",
            "OOP3Native": "",
            "OOP3NativeLink": ""
        },
        {
            "PlanName": "UnitedHealthcare Silver Compass HSA 2600-1",
            "OOP1Non": "",
            "OOP1NonLink": "",
            "OOP2Non": "",
            "OOP2NonLink": "",
            "OOP3Non": "",
            "OOP3NonLink": "",
            "OOP4Non": "",
            "OOP4NonLink": "",
            "OOP5Non": "",
            "OOP5NonLink": "",
            "OOP6Non": "",
            "OOP6NonLink": "",
            "OOP7Non": "",
            "OOP7NonLink": "",
            "OOP8Non": "",
            "OOP8NonLink": "",
            "OOP1Native": "",
            "OOP1NativeLink": "",
            "OOP2Native": "",
            "OOP2NativeLink": "",
            "OOP3Native": "",
            "OOP3NativeLink": ""
        },
        {
            "PlanName": "UnitedHealthcare Silver Compass HSA 1900",
            "OOP1Non": "",
            "OOP1NonLink": "",
            "OOP2Non": "",
            "OOP2NonLink": "",
            "OOP3Non": "",
            "OOP3NonLink": "",
            "OOP4Non": "",
            "OOP4NonLink": "",
            "OOP5Non": "",
            "OOP5NonLink": "",
            "OOP6Non": "",
            "OOP6NonLink": "",
            "OOP7Non": "",
            "OOP7NonLink": "",
            "OOP8Non": "",
            "OOP8NonLink": "",
            "OOP1Native": "",
            "OOP1NativeLink": "",
            "OOP2Native": "",
            "OOP2NativeLink": "",
            "OOP3Native": "",
            "OOP3NativeLink": ""
        },
        {
            "PlanName": "UnitedHealthcare Silver Compass HSA 550",
            "OOP1Non": "",
            "OOP1NonLink": "",
            "OOP2Non": "",
            "OOP2NonLink": "",
            "OOP3Non": "",
            "OOP3NonLink": "",
            "OOP4Non": "",
            "OOP4NonLink": "",
            "OOP5Non": "",
            "OOP5NonLink": "",
            "OOP6Non": "",
            "OOP6NonLink": "",
            "OOP7Non": "",
            "OOP7NonLink": "",
            "OOP8Non": "",
            "OOP8NonLink": "",
            "OOP1Native": "",
            "OOP1NativeLink": "",
            "OOP2Native": "",
            "OOP2NativeLink": "",
            "OOP3Native": "",
            "OOP3NativeLink": ""
        },
        {
            "PlanName": "UnitedHealthcare Silver Compass HSA 75",
            "OOP1Non": "",
            "OOP1NonLink": "",
            "OOP2Non": "",
            "OOP2NonLink": "",
            "OOP3Non": "",
            "OOP3NonLink": "",
            "OOP4Non": "",
            "OOP4NonLink": "",
            "OOP5Non": "",
            "OOP5NonLink": "",
            "OOP6Non": "",
            "OOP6NonLink": "",
            "OOP7Non": "",
            "OOP7NonLink": "",
            "OOP8Non": "",
            "OOP8NonLink": "",
            "OOP1Native": "",
            "OOP1NativeLink": "",
            "OOP2Native": "",
            "OOP2NativeLink": "",
            "OOP3Native": "",
            "OOP3NativeLink": ""
        },
        {
            "PlanName": "UnitedHealthcare Silver Compass HSA 1600",
            "OOP1Non": "$700",
            "OOP1NonLink": "silver-HSA-150-1.html",
            "OOP2Non": "$1,400",
            "OOP2NonLink": "silver-HSA-150-1.html",
            "OOP3Non": "$2,250",
            "OOP3NonLink": "silver-HSA-150.html",
            "OOP4Non": "$4,500",
            "OOP4NonLink": "silver-HSA-150.html",
            "OOP5Non": "$5,200",
            "OOP5NonLink": "silver-HSA-1100.html",
            "OOP6Non": "$10,400",
            "OOP6NonLink": "silver-HSA-1100.html",
            "OOP7Non": "$6,450",
            "OOP7NonLink": "silver-HSA-1600.html",
            "OOP8Non": "$12,900",
            "OOP8NonLink": "silver-HSA-1600.html",
            "OOP1Native": "$6,450",
            "OOP1NativeLink": "silver-HSA-1600-1.html",
            "OOP2Native": "$12,900",
            "OOP2NativeLink": "silver-HSA-1600-1.html",
            "OOP3Native": "N/A",
            "OOP3NativeLink": "silver-HSA-0.html"
        },
        {
            "PlanName": "UnitedHealthcare Silver Compass HSA $0",
            "OOP1Non": "",
            "OOP1NonLink": "",
            "OOP2Non": "",
            "OOP2NonLink": "",
            "OOP3Non": "",
            "OOP3NonLink": "",
            "OOP4Non": "",
            "OOP4NonLink": "",
            "OOP5Non": "",
            "OOP5NonLink": "",
            "OOP6Non": "",
            "OOP6NonLink": "",
            "OOP7Non": "",
            "OOP7NonLink": "",
            "OOP8Non": "",
            "OOP8NonLink": "",
            "OOP1Native": "",
            "OOP1NativeLink": "",
            "OOP2Native": "",
            "OOP2NativeLink": "",
            "OOP3Native": "",
            "OOP3NativeLink": ""
        },
        {
            "PlanName": "UnitedHealthcare Silver Compass HSA 1600-1",
            "OOP1Non": "",
            "OOP1NonLink": "",
            "OOP2Non": "",
            "OOP2NonLink": "",
            "OOP3Non": "",
            "OOP3NonLink": "",
            "OOP4Non": "",
            "OOP4NonLink": "",
            "OOP5Non": "",
            "OOP5NonLink": "",
            "OOP6Non": "",
            "OOP6NonLink": "",
            "OOP7Non": "",
            "OOP7NonLink": "",
            "OOP8Non": "",
            "OOP8NonLink": "",
            "OOP1Native": "",
            "OOP1NativeLink": "",
            "OOP2Native": "",
            "OOP2NativeLink": "",
            "OOP3Native": "",
            "OOP3NativeLink": ""
        },
        {
            "PlanName": "UnitedHealthcare Silver Compass HSA 1100",
            "OOP1Non": "",
            "OOP1NonLink": "",
            "OOP2Non": "",
            "OOP2NonLink": "",
            "OOP3Non": "",
            "OOP3NonLink": "",
            "OOP4Non": "",
            "OOP4NonLink": "",
            "OOP5Non": "",
            "OOP5NonLink": "",
            "OOP6Non": "",
            "OOP6NonLink": "",
            "OOP7Non": "",
            "OOP7NonLink": "",
            "OOP8Non": "",
            "OOP8NonLink": "",
            "OOP1Native": "",
            "OOP1NativeLink": "",
            "OOP2Native": "",
            "OOP2NativeLink": "",
            "OOP3Native": "",
            "OOP3NativeLink": ""
        },
        {
            "PlanName": "UnitedHealthcare Silver Compass 150",
            "OOP1Non": "",
            "OOP1NonLink": "",
            "OOP2Non": "",
            "OOP2NonLink": "",
            "OOP3Non": "",
            "OOP3NonLink": "",
            "OOP4Non": "",
            "OOP4NonLink": "",
            "OOP5Non": "",
            "OOP5NonLink": "",
            "OOP6Non": "",
            "OOP6NonLink": "",
            "OOP7Non": "",
            "OOP7NonLink": "",
            "OOP8Non": "",
            "OOP8NonLink": "",
            "OOP1Native": "",
            "OOP1NativeLink": "",
            "OOP2Native": "",
            "OOP2NativeLink": "",
            "OOP3Native": "",
            "OOP3NativeLink": ""
        },
        {
            "PlanName": "UnitedHealthcare Silver Compass 150-1",
            "OOP1Non": "",
            "OOP1NonLink": "",
            "OOP2Non": "",
            "OOP2NonLink": "",
            "OOP3Non": "",
            "OOP3NonLink": "",
            "OOP4Non": "",
            "OOP4NonLink": "",
            "OOP5Non": "",
            "OOP5NonLink": "",
            "OOP6Non": "",
            "OOP6NonLink": "",
            "OOP7Non": "",
            "OOP7NonLink": "",
            "OOP8Non": "",
            "OOP8NonLink": "",
            "OOP1Native": "",
            "OOP1NativeLink": "",
            "OOP2Native": "",
            "OOP2NativeLink": "",
            "OOP3Native": "",
            "OOP3NativeLink": ""
        },
        {
            "PlanName": "UnitedHealthcare Silver Compass 2000",
            "OOP1Non": "$550",
            "OOP1NonLink": "silver-100.html",
            "OOP2Non": "$1,100",
            "OOP2NonLink": "silver-100.html",
            "OOP3Non": "$2,250",
            "OOP3NonLink": "silver-250.html",
            "OOP4Non": "$4,500",
            "OOP4NonLink": "silver-250.html",
            "OOP5Non": "$5,200",
            "OOP5NonLink": "silver-1200.html",
            "OOP6Non": "$10,400",
            "OOP6NonLink": "silver-1200.html",
            "OOP7Non": "$6,600",
            "OOP7NonLink": "silver-2000.html",
            "OOP8Non": "$13,200",
            "OOP8NonLink": "silver-2000.html",
            "OOP1Native": "$6,600",
            "OOP1NativeLink": "silver-2000-1.html",
            "OOP2Native": "$13,200",
            "OOP2NativeLink": "silver-2000-1.html",
            "OOP3Native": "N/A",
            "OOP3NativeLink": "silver-0.html"
        },
        {
            "PlanName": "UnitedHealthcare Silver Compass $0",
            "OOP1Non": "",
            "OOP1NonLink": "",
            "OOP2Non": "",
            "OOP2NonLink": "",
            "OOP3Non": "",
            "OOP3NonLink": "",
            "OOP4Non": "",
            "OOP4NonLink": "",
            "OOP5Non": "",
            "OOP5NonLink": "",
            "OOP6Non": "",
            "OOP6NonLink": "",
            "OOP7Non": "",
            "OOP7NonLink": "",
            "OOP8Non": "",
            "OOP8NonLink": "",
            "OOP1Native": "",
            "OOP1NativeLink": "",
            "OOP2Native": "",
            "OOP2NativeLink": "",
            "OOP3Native": "",
            "OOP3NativeLink": ""
        },
        {
            "PlanName": "UnitedHealthcare Silver Compass 2000-1",
            "OOP1Non": "",
            "OOP1NonLink": "",
            "OOP2Non": "",
            "OOP2NonLink": "",
            "OOP3Non": "",
            "OOP3NonLink": "",
            "OOP4Non": "",
            "OOP4NonLink": "",
            "OOP5Non": "",
            "OOP5NonLink": "",
            "OOP6Non": "",
            "OOP6NonLink": "",
            "OOP7Non": "",
            "OOP7NonLink": "",
            "OOP8Non": "",
            "OOP8NonLink": "",
            "OOP1Native": "",
            "OOP1NativeLink": "",
            "OOP2Native": "",
            "OOP2NativeLink": "",
            "OOP3Native": "",
            "OOP3NativeLink": ""
        },
        {
            "PlanName": "UnitedHealthcare Silver Compass 1200",
            "OOP1Non": "",
            "OOP1NonLink": "",
            "OOP2Non": "",
            "OOP2NonLink": "",
            "OOP3Non": "",
            "OOP3NonLink": "",
            "OOP4Non": "",
            "OOP4NonLink": "",
            "OOP5Non": "",
            "OOP5NonLink": "",
            "OOP6Non": "",
            "OOP6NonLink": "",
            "OOP7Non": "",
            "OOP7NonLink": "",
            "OOP8Non": "",
            "OOP8NonLink": "",
            "OOP1Native": "",
            "OOP1NativeLink": "",
            "OOP2Native": "",
            "OOP2NativeLink": "",
            "OOP3Native": "",
            "OOP3NativeLink": ""
        },
        {
            "PlanName": "UnitedHealthcare Silver Compass 250",
            "OOP1Non": "",
            "OOP1NonLink": "",
            "OOP2Non": "",
            "OOP2NonLink": "",
            "OOP3Non": "",
            "OOP3NonLink": "",
            "OOP4Non": "",
            "OOP4NonLink": "",
            "OOP5Non": "",
            "OOP5NonLink": "",
            "OOP6Non": "",
            "OOP6NonLink": "",
            "OOP7Non": "",
            "OOP7NonLink": "",
            "OOP8Non": "",
            "OOP8NonLink": "",
            "OOP1Native": "",
            "OOP1NativeLink": "",
            "OOP2Native": "",
            "OOP2NativeLink": "",
            "OOP3Native": "",
            "OOP3NativeLink": ""
        },
        {
            "PlanName": "UnitedHealthcare Silver Compass 100",
            "OOP1Non": "",
            "OOP1NonLink": "",
            "OOP2Non": "",
            "OOP2NonLink": "",
            "OOP3Non": "",
            "OOP3NonLink": "",
            "OOP4Non": "",
            "OOP4NonLink": "",
            "OOP5Non": "",
            "OOP5NonLink": "",
            "OOP6Non": "",
            "OOP6NonLink": "",
            "OOP7Non": "",
            "OOP7NonLink": "",
            "OOP8Non": "",
            "OOP8NonLink": "",
            "OOP1Native": "",
            "OOP1NativeLink": "",
            "OOP2Native": "",
            "OOP2NativeLink": "",
            "OOP3Native": "",
            "OOP3NativeLink": ""
        },
        {
            "PlanName": "UnitedHealthcare Silver Compass 3500",
            "OOP1Non": "$550",
            "OOP1NonLink": "silver-100-1.html",
            "OOP2Non": "$1,100",
            "OOP2NonLink": "silver-100-1.html",
            "OOP3Non": "$2,250",
            "OOP3NonLink": "silver-250-1.html",
            "OOP4Non": "$4,500",
            "OOP4NonLink": "silver-250-1.html",
            "OOP5Non": "$5,200",
            "OOP5NonLink": "silver-2500.html",
            "OOP6Non": "$10,400",
            "OOP6NonLink": "silver-2500.html",
            "OOP7Non": "$6,600",
            "OOP7NonLink": "silver-3500.html",
            "OOP8Non": "$13,200",
            "OOP8NonLink": "silver-3500.html",
            "OOP1Native": "$6,600",
            "OOP1NativeLink": "silver-3500-1.html",
            "OOP2Native": "$13,200",
            "OOP2NativeLink": "silver-3500-1.html",
            "OOP3Native": "N/A",
            "OOP3NativeLink": "silver-0-3500.html"
        },
        {
            "PlanName": "UnitedHealthcare Silver Compass $0",
            "OOP1Non": "",
            "OOP1NonLink": "",
            "OOP2Non": "",
            "OOP2NonLink": "",
            "OOP3Non": "",
            "OOP3NonLink": "",
            "OOP4Non": "",
            "OOP4NonLink": "",
            "OOP5Non": "",
            "OOP5NonLink": "",
            "OOP6Non": "",
            "OOP6NonLink": "",
            "OOP7Non": "",
            "OOP7NonLink": "",
            "OOP8Non": "",
            "OOP8NonLink": "",
            "OOP1Native": "",
            "OOP1NativeLink": "",
            "OOP2Native": "",
            "OOP2NativeLink": "",
            "OOP3Native": "",
            "OOP3NativeLink": ""
        },
        {
            "PlanName": "UnitedHealthcare Silver Compass 3500-1",
            "OOP1Non": "",
            "OOP1NonLink": "",
            "OOP2Non": "",
            "OOP2NonLink": "",
            "OOP3Non": "",
            "OOP3NonLink": "",
            "OOP4Non": "",
            "OOP4NonLink": "",
            "OOP5Non": "",
            "OOP5NonLink": "",
            "OOP6Non": "",
            "OOP6NonLink": "",
            "OOP7Non": "",
            "OOP7NonLink": "",
            "OOP8Non": "",
            "OOP8NonLink": "",
            "OOP1Native": "",
            "OOP1NativeLink": "",
            "OOP2Native": "",
            "OOP2NativeLink": "",
            "OOP3Native": "",
            "OOP3NativeLink": ""
        },
        {
            "PlanName": "UnitedHealthcare Silver Compass 2500",
            "OOP1Non": "",
            "OOP1NonLink": "",
            "OOP2Non": "",
            "OOP2NonLink": "",
            "OOP3Non": "",
            "OOP3NonLink": "",
            "OOP4Non": "",
            "OOP4NonLink": "",
            "OOP5Non": "",
            "OOP5NonLink": "",
            "OOP6Non": "",
            "OOP6NonLink": "",
            "OOP7Non": "",
            "OOP7NonLink": "",
            "OOP8Non": "",
            "OOP8NonLink": "",
            "OOP1Native": "",
            "OOP1NativeLink": "",
            "OOP2Native": "",
            "OOP2NativeLink": "",
            "OOP3Native": "",
            "OOP3NativeLink": ""
        },
        {
            "PlanName": "UnitedHealthcare Silver Compass 250-1",
            "OOP1Non": "",
            "OOP1NonLink": "",
            "OOP2Non": "",
            "OOP2NonLink": "",
            "OOP3Non": "",
            "OOP3NonLink": "",
            "OOP4Non": "",
            "OOP4NonLink": "",
            "OOP5Non": "",
            "OOP5NonLink": "",
            "OOP6Non": "",
            "OOP6NonLink": "",
            "OOP7Non": "",
            "OOP7NonLink": "",
            "OOP8Non": "",
            "OOP8NonLink": "",
            "OOP1Native": "",
            "OOP1NativeLink": "",
            "OOP2Native": "",
            "OOP2NativeLink": "",
            "OOP3Native": "",
            "OOP3NativeLink": ""
        },
        {
            "PlanName": "UnitedHealthcare Silver Compass 100-1",
            "OOP1Non": "",
            "OOP1NonLink": "",
            "OOP2Non": "",
            "OOP2NonLink": "",
            "OOP3Non": "",
            "OOP3NonLink": "",
            "OOP4Non": "",
            "OOP4NonLink": "",
            "OOP5Non": "",
            "OOP5NonLink": "",
            "OOP6Non": "",
            "OOP6NonLink": "",
            "OOP7Non": "",
            "OOP7NonLink": "",
            "OOP8Non": "",
            "OOP8NonLink": "",
            "OOP1Native": "",
            "OOP1NativeLink": "",
            "OOP2Native": "",
            "OOP2NativeLink": "",
            "OOP3Native": "",
            "OOP3NativeLink": ""
        },
        {
            "PlanName": "UnitedHealthcare Silver Compass 5000",
            "OOP1Non": "$550",
            "OOP1NonLink": "silver-100-2.html",
            "OOP2Non": "$1,100",
            "OOP2NonLink": "silver-100-2.html",
            "OOP3Non": "$2,250",
            "OOP3NonLink": "silver-250-2.html",
            "OOP4Non": "$4,500",
            "OOP4NonLink": "silver-250-2.html",
            "OOP5Non": "$5,200",
            "OOP5NonLink": "silver-3500-2.html",
            "OOP6Non": "$10,400",
            "OOP6NonLink": "silver-3500-2.html",
            "OOP7Non": "$6,600",
            "OOP7NonLink": "silver-5000.html",
            "OOP8Non": "$13,200",
            "OOP8NonLink": "silver-5000.html",
            "OOP1Native": "$6,600",
            "OOP1NativeLink": "silver-5000-1.html",
            "OOP2Native": "$13,200",
            "OOP2NativeLink": "silver-5000-1.html",
            "OOP3Native": "N/A",
            "OOP3NativeLink": "silver-0-5000.html"
        },
        {
            "PlanName": "UnitedHealthcare Silver Compass $0",
            "OOP1Non": "",
            "OOP1NonLink": "",
            "OOP2Non": "",
            "OOP2NonLink": "",
            "OOP3Non": "",
            "OOP3NonLink": "",
            "OOP4Non": "",
            "OOP4NonLink": "",
            "OOP5Non": "",
            "OOP5NonLink": "",
            "OOP6Non": "",
            "OOP6NonLink": "",
            "OOP7Non": "",
            "OOP7NonLink": "",
            "OOP8Non": "",
            "OOP8NonLink": "",
            "OOP1Native": "",
            "OOP1NativeLink": "",
            "OOP2Native": "",
            "OOP2NativeLink": "",
            "OOP3Native": "",
            "OOP3NativeLink": ""
        },
        {
            "PlanName": "UnitedHealthcare Silver Compass 5000-1",
            "OOP1Non": "",
            "OOP1NonLink": "",
            "OOP2Non": "",
            "OOP2NonLink": "",
            "OOP3Non": "",
            "OOP3NonLink": "",
            "OOP4Non": "",
            "OOP4NonLink": "",
            "OOP5Non": "",
            "OOP5NonLink": "",
            "OOP6Non": "",
            "OOP6NonLink": "",
            "OOP7Non": "",
            "OOP7NonLink": "",
            "OOP8Non": "",
            "OOP8NonLink": "",
            "OOP1Native": "",
            "OOP1NativeLink": "",
            "OOP2Native": "",
            "OOP2NativeLink": "",
            "OOP3Native": "",
            "OOP3NativeLink": ""
        },
        {
            "PlanName": "UnitedHealthcare Silver Compass 3500-2",
            "OOP1Non": "",
            "OOP1NonLink": "",
            "OOP2Non": "",
            "OOP2NonLink": "",
            "OOP3Non": "",
            "OOP3NonLink": "",
            "OOP4Non": "",
            "OOP4NonLink": "",
            "OOP5Non": "",
            "OOP5NonLink": "",
            "OOP6Non": "",
            "OOP6NonLink": "",
            "OOP7Non": "",
            "OOP7NonLink": "",
            "OOP8Non": "",
            "OOP8NonLink": "",
            "OOP1Native": "",
            "OOP1NativeLink": "",
            "OOP2Native": "",
            "OOP2NativeLink": "",
            "OOP3Native": "",
            "OOP3NativeLink": ""
        },
        {
            "PlanName": "UnitedHealthcare Silver Compass 250-2",
            "OOP1Non": "",
            "OOP1NonLink": "",
            "OOP2Non": "",
            "OOP2NonLink": "",
            "OOP3Non": "",
            "OOP3NonLink": "",
            "OOP4Non": "",
            "OOP4NonLink": "",
            "OOP5Non": "",
            "OOP5NonLink": "",
            "OOP6Non": "",
            "OOP6NonLink": "",
            "OOP7Non": "",
            "OOP7NonLink": "",
            "OOP8Non": "",
            "OOP8NonLink": "",
            "OOP1Native": "",
            "OOP1NativeLink": "",
            "OOP2Native": "",
            "OOP2NativeLink": "",
            "OOP3Native": "",
            "OOP3NativeLink": ""
        },
        {
            "PlanName": "UnitedHealthcare Silver Compass 100-2",
            "OOP1Non": "",
            "OOP1NonLink": "",
            "OOP2Non": "",
            "OOP2NonLink": "",
            "OOP3Non": "",
            "OOP3NonLink": "",
            "OOP4Non": "",
            "OOP4NonLink": "",
            "OOP5Non": "",
            "OOP5NonLink": "",
            "OOP6Non": "",
            "OOP6NonLink": "",
            "OOP7Non": "",
            "OOP7NonLink": "",
            "OOP8Non": "",
            "OOP8NonLink": "",
            "OOP1Native": "",
            "OOP1NativeLink": "",
            "OOP2Native": "",
            "OOP2NativeLink": "",
            "OOP3Native": "",
            "OOP3NativeLink": ""
        },
        {
            "PlanName": "UnitedHealthcare Bronze Compass HSA 4900",
            "OOP1Non": "",
            "OOP1NonLink": "",
            "OOP2Non": "",
            "OOP2NonLink": "",
            "OOP3Non": "",
            "OOP3NonLink": "",
            "OOP4Non": "",
            "OOP4NonLink": "",
            "OOP5Non": "",
            "OOP5NonLink": "",
            "OOP6Non": "",
            "OOP6NonLink": "",
            "OOP7Non": "",
            "OOP7NonLink": "",
            "OOP8Non": "",
            "OOP8NonLink": "",
            "OOP1Native": "$6,450",
            "OOP1NativeLink": "bronze-HSA-4900-1.html",
            "OOP2Native": "$12,900",
            "OOP2NativeLink": "bronze-HSA-4900-1.html",
            "OOP3Native": "N/A",
            "OOP3NativeLink": "bronze-HSA-0.html"
        },
        {
            "PlanName": "UnitedHealthcare Bronze Compass HSA $0",
            "OOP1Non": "",
            "OOP1NonLink": "",
            "OOP2Non": "",
            "OOP2NonLink": "",
            "OOP3Non": "",
            "OOP3NonLink": "",
            "OOP4Non": "",
            "OOP4NonLink": "",
            "OOP5Non": "",
            "OOP5NonLink": "",
            "OOP6Non": "",
            "OOP6NonLink": "",
            "OOP7Non": "",
            "OOP7NonLink": "",
            "OOP8Non": "",
            "OOP8NonLink": "",
            "OOP1Native": "",
            "OOP1NativeLink": "",
            "OOP2Native": "",
            "OOP2NativeLink": "",
            "OOP3Native": "",
            "OOP3NativeLink": ""
        },
        {
            "PlanName": "UnitedHealthcare Bronze Compass HSA 4900-1",
            "OOP1Non": "",
            "OOP1NonLink": "",
            "OOP2Non": "",
            "OOP2NonLink": "",
            "OOP3Non": "",
            "OOP3NonLink": "",
            "OOP4Non": "",
            "OOP4NonLink": "",
            "OOP5Non": "",
            "OOP5NonLink": "",
            "OOP6Non": "",
            "OOP6NonLink": "",
            "OOP7Non": "",
            "OOP7NonLink": "",
            "OOP8Non": "",
            "OOP8NonLink": "",
            "OOP1Native": "",
            "OOP1NativeLink": "",
            "OOP2Native": "",
            "OOP2NativeLink": "",
            "OOP3Native": "",
            "OOP3NativeLink": ""
        },
        {
            "PlanName": "UnitedHealthcare Bronze Compass 5500",
            "OOP1Non": "",
            "OOP1NonLink": "",
            "OOP2Non": "",
            "OOP2NonLink": "",
            "OOP3Non": "",
            "OOP3NonLink": "",
            "OOP4Non": "",
            "OOP4NonLink": "",
            "OOP5Non": "",
            "OOP5NonLink": "",
            "OOP6Non": "",
            "OOP6NonLink": "",
            "OOP7Non": "",
            "OOP7NonLink": "",
            "OOP8Non": "",
            "OOP8NonLink": "",
            "OOP1Native": "$6,600",
            "OOP1NativeLink": "bronze-5500-1.html",
            "OOP2Native": "$13,200",
            "OOP2NativeLink": "bronze-5500-1.html",
            "OOP3Native": "N/A",
            "OOP3NativeLink": "bronze-0.html"
        },
        {
            "PlanName": "UnitedHealthcare Bronze Compass $0",
            "OOP1Non": "",
            "OOP1NonLink": "",
            "OOP2Non": "",
            "OOP2NonLink": "",
            "OOP3Non": "",
            "OOP3NonLink": "",
            "OOP4Non": "",
            "OOP4NonLink": "",
            "OOP5Non": "",
            "OOP5NonLink": "",
            "OOP6Non": "",
            "OOP6NonLink": "",
            "OOP7Non": "",
            "OOP7NonLink": "",
            "OOP8Non": "",
            "OOP8NonLink": "",
            "OOP1Native": "",
            "OOP1NativeLink": "",
            "OOP2Native": "",
            "OOP2NativeLink": "",
            "OOP3Native": "",
            "OOP3NativeLink": ""
        },
        {
            "PlanName": "UnitedHealthcare Bronze Compass 5500-1",
            "OOP1Non": "",
            "OOP1NonLink": "",
            "OOP2Non": "",
            "OOP2NonLink": "",
            "OOP3Non": "",
            "OOP3NonLink": "",
            "OOP4Non": "",
            "OOP4NonLink": "",
            "OOP5Non": "",
            "OOP5NonLink": "",
            "OOP6Non": "",
            "OOP6NonLink": "",
            "OOP7Non": "",
            "OOP7NonLink": "",
            "OOP8Non": "",
            "OOP8NonLink": "",
            "OOP1Native": "",
            "OOP1NativeLink": "",
            "OOP2Native": "",
            "OOP2NativeLink": "",
            "OOP3Native": "",
            "OOP3NativeLink": ""
        }
    ]
}